{
"colores": {"piepagina": "darkred"},
"encabezado": {
    "emisor": {
        "direccion": {
            "rectangulo": {"x": 1.0, "y": 26.2, "width": 19.6, "height": 0.4,
                "radius": 0.1, "stroke": false, "fill": true, "color": "darkred"}
        },
        "nombre": {
            "rectangulo": {"x": 10.6, "y": 25.6, "width": 10.0, "height": 0.4,
                "radius": 0.0, "stroke": false, "fill": false},
            "estilo": {"name": "nombre", "fontName": "Helvetica-Bold",
                "fontSize": 14, "alignment": 2, "textColor": "darkred",
                "backColor": "white"}
        },
        "rfc": {
            "rectangulo": {"x": 10.6, "y": 25.0, "width": 10.0, "height": 0.4,
                "radius": 0.0, "stroke": false, "fill": false},
            "estilo": {"name": "rfc", "fontName": "Helvetica-Bold",
                "fontSize": 12, "alignment": 2, "textColor": "darkred",
                "backColor": "white"}
        },
        "regimenfiscal": {
            "rectangulo": {"x": 10.6, "y": 24.4, "width": 10.0, "height": 0.4,
                "radius": 0.0, "stroke": false, "fill": false},
            "estilo": {"name": "regimenfiscal", "fontName": "Helvetica-Bold",
                "fontSize": 7, "alignment": 2, "textColor": "darkred",
                "backColor": "white"}
        },
        "logo": {
            "rectangulo": {"x": 1.0, "y": 24.2, "width": 2.5, "height": 2.5}
        }
    },
    "receptor": {
        "titulo": {
            "valor": "Receptor",
            "rectangulo": {"x": 1.5, "y": 20.8, "width": 2.8, "height": 0.9,
                "radius": 0.0, "stroke": false, "fill": false},
            "estilo": {"name": "nombre", "fontName": "Helvetica-Bold",
                "fontSize": 9, "alignment": 1, "textColor": "darkred",
                "backColor": "linen"}
        },
        "nombre": {
            "rectangulo": {"x": 2.0, "y": 23.2, "width": 15.0, "height": 0.4,
                "radius": 0.0, "stroke": false, "fill": false},
            "estilo": {"name": "nombre", "fontName": "Helvetica-Bold",
                "fontSize": 10, "alignment": 0, "textColor": "black",
                "backColor": "white"}
        },
        "rfc": {
            "rectangulo": {"x": 2.0, "y": 22.5, "width": 10.0, "height": 0.4,
                "radius": 0.0, "stroke": false, "fill": false},
            "estilo": {"name": "rfc", "fontName": "Helvetica-Bold",
                "fontSize": 9, "alignment": 0, "textColor": "black",
                "backColor": "white"}
        },
        "usocfdi": {
            "rectangulo": {"x": 2.0, "y": 20.7, "width": 15.0, "height": 0.4,
                "radius": 0.0, "stroke": false, "fill": false},
            "estilo": {"name": "usocfdi", "fontName": "Helvetica",
                "fontSize": 8, "alignment": 0, "textColor": "black",
                "backColor": "white"}
        }
    },
    "comprobante": {
        "titulo": {
            "valor": "Datos CFDI",
            "rectangulo": {"x": 14.0, "y": 20.8, "width": 2.8, "height": 0.9,
                "radius": 0.0, "stroke": false, "fill": false},
            "estilo": {"name": "nombre", "fontName": "Helvetica-Bold",
                "fontSize": 9, "alignment": 1, "textColor": "darkred",
                "backColor": "linen"}
        },
        "t_folio": {
            "valor": "Folio:",
            "rectangulo": {"x": 14.2, "y": 23.2, "width": 1.0, "height": 0.8,
                "radius": 0.0, "stroke": false, "fill": false},
            "estilo": {"name": "nombre", "fontName": "Helvetica-Bold",
                "fontSize": 8, "alignment": 0, "textColor": "black",
                "backColor": "white"}
        },
        "seriefolio": {
            "rectangulo": {"x": 15.1, "y": 23.2, "width": 3.0, "height": 0.4,
                "radius": 0.0, "stroke": false, "fill": false},
            "estilo": {"name": "nombre", "fontName": "Helvetica-Bold",
                "fontSize": 8, "alignment": 0, "textColor": "red",
                "backColor": "white"}
        },
        "t_tipo": {
            "valor": "Tipo:",
            "rectangulo": {"x": 18.2, "y": 23.2, "width": 1.0, "height": 0.8,
                "radius": 0.0, "stroke": false, "fill": false},
            "estilo": {"name": "nombre", "fontName": "Helvetica-Bold",
                "fontSize": 8, "alignment": 0, "textColor": "black",
                "backColor": "white"}
        },
        "tipodecomprobante": {
            "rectangulo": {"x": 19.0, "y": 23.2, "width": 1.5, "height": 0.8,
                "radius": 0.0, "stroke": false, "fill": false},
            "estilo": {"name": "nombre", "fontName": "Helvetica-Bold",
                "fontSize": 8, "alignment": 0, "textColor": "red",
                "backColor": "white"}
        },
        "t_uuid": {
            "valor": "Folio Fiscal:",
            "rectangulo": {"x": 14.2, "y": 22.7, "width": 3.0, "height": 0.4,
                "radius": 0.0, "stroke": false, "fill": false},
            "estilo": {"name": "nombre", "fontName": "Helvetica-Bold",
                "fontSize": 6, "alignment": 0, "textColor": "black",
                "backColor": "white"}
        },
        "uuid": {
            "rectangulo": {"x": 15.6, "y": 22.7, "width": 6.5, "height": 0.4,
                "radius": 0.0, "stroke": false, "fill": false},
            "estilo": {"name": "nombre", "fontName": "Helvetica-Bold",
                "fontSize": 6, "alignment": 0, "textColor": "red",
                "backColor": "white"}
        },
        "t_fecha": {
            "valor": "Fecha Expedición:",
            "rectangulo": {"x": 14.2, "y": 22.1, "width": 2.2, "height": 0.3,
                "radius": 0.0, "stroke": false, "fill": false},
            "estilo": {"name": "nombre", "fontName": "Helvetica-Bold",
                "fontSize": 6, "alignment": 2, "textColor": "black",
                "backColor": "white"}
        },
        "fecha": {
            "rectangulo": {"x": 16.5, "y": 22.1, "width": 3.0, "height": 0.3,
                "radius": 0.0, "stroke": false, "fill": false},
            "estilo": {"name": "nombre", "fontName": "Helvetica-Bold",
                "fontSize": 6, "alignment": 0, "textColor": "black",
                "backColor": "white"}
        },
        "t_fecha_timbrado": {
            "valor": "Fecha Timbrado:",
            "rectangulo": {"x": 14.2, "y": 21.8, "width": 2.2, "height": 0.3,
                "radius": 0.0, "stroke": false, "fill": false},
            "estilo": {"name": "nombre", "fontName": "Helvetica-Bold",
                "fontSize": 6, "alignment": 2, "textColor": "black",
                "backColor": "white"}
        },
        "fechatimbrado": {
            "rectangulo": {"x": 16.5, "y": 21.8, "width": 3.0, "height": 0.3,
                "radius": 0.0, "stroke": false, "fill": false},
            "estilo": {"name": "nombre", "fontName": "Helvetica-Bold",
                "fontSize": 6, "alignment": 0, "textColor": "black",
                "backColor": "white"}
        },
        "t_serie_emisor": {
            "valor": "Serie CSD Emisor:",
            "rectangulo": {"x": 14.2, "y": 21.4, "width": 2.2, "height": 0.3,
                "radius": 0.0, "stroke": false, "fill": false},
            "estilo": {"name": "nombre", "fontName": "Helvetica-Bold",
                "fontSize": 6, "alignment": 2, "textColor": "black",
                "backColor": "white"}
        },
        "nocertificado": {
            "rectangulo": {"x": 16.5, "y": 21.4, "width": 3.0, "height": 0.3,
                "radius": 0.0, "stroke": false, "fill": false},
            "estilo": {"name": "nombre", "fontName": "Helvetica-Bold",
                "fontSize": 6, "alignment": 0, "textColor": "black",
                "backColor": "white"}
        },
        "t_serie_sat": {
            "valor": "Serie CSD SAT:",
            "rectangulo": {"x": 14.2, "y": 21.1, "width": 2.2, "height": 0.3,
                "radius": 0.0, "stroke": false, "fill": false},
            "estilo": {"name": "nombre", "fontName": "Helvetica-Bold",
                "fontSize": 6, "alignment": 2, "textColor": "black",
                "backColor": "white"}
        },
        "nocertificadosat": {
            "rectangulo": {"x": 16.5, "y": 21.1, "width": 3.0, "height": 0.3,
                "radius": 0.0, "stroke": false, "fill": false},
            "estilo": {"name": "nombre", "fontName": "Helvetica-Bold",
                "fontSize": 6, "alignment": 0, "textColor": "black",
                "backColor": "white"}
        },
        "lugarexpedicion": {
            "rectangulo": {"x": 14.2, "y": 20.7, "width": 5.5, "height": 0.4,
                "radius": 0.0, "stroke": false, "fill": false},
            "estilo": {"name": "nombre", "fontName": "Helvetica-Bold",
                "fontSize": 7, "alignment": 1, "textColor": "black",
                "backColor": "white"}
        }
    }
},
"conceptos": {
},
"comprobante": {
    "totalenletras": {
        "estilo": {"name": "enletras", "fontName": "Helvetica-Bold",
            "fontSize": 7, "alignment": 1, "textColor": "black",
            "spaceBefore": 0.1}
    },
    "formadepago": {
        "estilo": {"name": "formadepago", "fontName": "Helvetica",
            "fontSize": 7, "alignment": 0, "textColor": "black"}
    },
    "metododepago": {
        "estilo": {"name": "metododepago", "fontName": "Helvetica",
            "fontSize": 7, "alignment": 0, "textColor": "black"}
    },
    "moneda": {
        "estilo": {"name": "moneda", "fontName": "Helvetica",
            "fontSize": 7, "alignment": 0, "textColor": "black"}
    },
    "tipocambio": {
        "estilo": {"name": "tipocambio", "fontName": "Helvetica",
            "fontSize": 7, "alignment": 0, "textColor": "black"}
    },
    "notas": {
        "estilo": {"name": "notas", "fontName": "Helvetica",
            "fontSize": 7, "alignment": 0, "textColor": "black"}
    }
}
}
